\relax 
\providecommand\hyper@newdestlabel[2]{}
\providecommand\HyperFirstAtBeginDocument{\AtBeginDocument}
\HyperFirstAtBeginDocument{\ifx\hyper@anchor\@undefined
\global\let\oldcontentsline\contentsline
\gdef\contentsline#1#2#3#4{\oldcontentsline{#1}{#2}{#3}}
\global\let\oldnewlabel\newlabel
\gdef\newlabel#1#2{\newlabelxx{#1}#2}
\gdef\newlabelxx#1#2#3#4#5#6{\oldnewlabel{#1}{{#2}{#3}}}
\AtEndDocument{\ifx\hyper@anchor\@undefined
\let\contentsline\oldcontentsline
\let\newlabel\oldnewlabel
\fi}
\fi}
\global\let\hyper@last\relax 
\gdef\HyperFirstAtBeginDocument#1{#1}
\providecommand\HyField@AuxAddToFields[1]{}
\providecommand\HyField@AuxAddToCoFields[2]{}
\@writefile{toc}{\contentsline {section}{\numberline {1}The bivariate case and implementation for the ALFALFA dataset}{1}{section.1}\protected@file@percent }
\newlabel{eq:1}{{1}{1}{The bivariate case and implementation for the ALFALFA dataset}{equation.1.1}{}}
\newlabel{eq:2}{{2}{1}{The bivariate case and implementation for the ALFALFA dataset}{equation.1.2}{}}
\@writefile{loa}{\contentsline {algorithm}{\numberline {1}{\ignorespaces How to commpute Veff\relax }}{2}{algorithm.1}\protected@file@percent }
\@writefile{lof}{\contentsline {figure}{\numberline {1}{\ignorespaces H{\sc  i}\nobreakspace  {}mass function for ALFALFA 40$\%$ catalog.\relax }}{3}{figure.caption.1}\protected@file@percent }
\providecommand*\caption@xref[2]{\@setref\relax\@undefined{#1}}
\newlabel{1}{{1}{3}{\hi ~mass function for ALFALFA 40$\%$ catalog.\relax }{figure.caption.1}{}}
\@writefile{toc}{\contentsline {section}{\numberline {2}Growth factor}{3}{section.2}\protected@file@percent }
\newlabel{eq:6}{{6}{4}{Growth factor}{equation.2.6}{}}
\newlabel{eq:7}{{7}{4}{Growth factor}{equation.2.7}{}}
\newlabel{eq:8}{{8}{4}{Growth factor}{equation.2.8}{}}
\@writefile{toc}{\contentsline {section}{\numberline {3}Growth rate}{4}{section.3}\protected@file@percent }
\@writefile{toc}{\contentsline {section}{\numberline {4}Dynamics and Statictics}{4}{section.4}\protected@file@percent }
\@writefile{toc}{\contentsline {subsection}{\numberline {4.1}Does gravitational clustering stabilize on small scales (Bhuvnesh Jain)}{4}{subsection.4.1}\protected@file@percent }
\@writefile{lof}{\contentsline {figure}{\numberline {2}{\ignorespaces \relax }}{5}{figure.caption.2}\protected@file@percent }
\newlabel{2}{{2}{5}{\relax }{figure.caption.2}{}}
\@writefile{lof}{\contentsline {figure}{\numberline {3}{\ignorespaces \relax }}{6}{figure.caption.3}\protected@file@percent }
\newlabel{3}{{3}{6}{\relax }{figure.caption.3}{}}
